<svg xmlns="http://www.w3.org/2000/svg" width="32" height="32" viewBox="0 0 32 32">
  <g fill="#777" transform="translate(8 8)">
    <path d="M8.1,4.2 C5.8,4.2 4,6 4,8.3 C4,10.6 5.8,12.4 8.1,12.4 C10.4,12.4 12.2,10.6 12.2,8.3 C12.2,6 10.4,4.2 8.1,4.2 Z M8.1,11.1 C6.6,11.1 5.3,9.9 5.3,8.3 C5.3,6.8 6.5,5.5 8.1,5.5 C9.7,5.5 10.9,6.7 10.9,8.3 C10.9,9.9 9.5,11.1 8.1,11.1 Z"/>
    <circle cx="12.4" cy="4.1" r="1"/>
    <path d="M14.9,1.6 C14,0.7 12.9,0.2 11.5,0.2 L4.8,0.2 C1.9,0.2 0.1,2 0.1,4.9 L0.1,11.6 C0.1,13 0.6,14.2 1.5,15.1 C2.4,16 3.5,16.3 4.9,16.3 L11.6,16.3 C13,16.3 14.2,15.8 15,15.1 C15.9,14.2 16.4,13.1 16.4,11.6 L16.4,5 C16.2,3.8 15.8,2.5 14.9,1.6 L14.9,1.6 Z M14.7,11.9 C14.7,13 14.4,13.7 13.8,14.4 C13.2,15.1 12.4,15.3 11.3,15.3 L4.6,15.3 C3.7,15.3 2.8,15 2.1,14.4 C1.5,13.8 1.2,13 1.2,11.9 L1.2,5.2 C1.2,4.3 1.5,3.4 2.1,2.7 C2.9,2.1 3.8,1.8 4.7,1.8 L11.4,1.8 C12.3,1.8 13.2,2.1 13.9,2.7 C14.6,3.3 14.8,4.1 14.8,5 L14.7,11.9 Z"/>
  </g>
</svg>
