<?xml version="1.0" encoding="UTF-8" standalone="no"?>
<svg
   xmlns:dc="http://purl.org/dc/elements/1.1/"
   xmlns:cc="http://creativecommons.org/ns#"
   xmlns:rdf="http://www.w3.org/1999/02/22-rdf-syntax-ns#"
   xmlns:svg="http://www.w3.org/2000/svg"
   xmlns="http://www.w3.org/2000/svg"
   version="1.1"
   id="hostjane-vps"
   viewBox="0 0 24 24"
   fill="currentColor">
  <metadata
     id="metadata21">
    <rdf:RDF>
      <cc:Work
         rdf:about="">
        <dc:format>image/svg+xml</dc:format>
        <dc:type
           rdf:resource="http://purl.org/dc/dcmitype/StillImage" />
      </cc:Work>
    </rdf:RDF>
  </metadata>
  <defs
     id="defs19" />
  <g
     id="g14"
     fill-rule="evenodd">
    <path
       id="path2"
       fill-rule="nonzero"
       d="M19 5.093V2a2 2 0 0 0-2-2H2a2 2 0 0 0-2 2v15a2 2 0 0 0 2 2h3.015v-1.2H2a.8.8 0 0 1-.8-.8V2a.8.8 0 0 1 .8-.8h15a.8.8 0 0 1 .8.8v3.093H19zM19 2a2 2 0 0 0-2-2H2a2 2 0 0 0-2 2v15a2 2 0 0 0 2 2h3.015v-1.2H2a.8.8 0 0 1-.8-.8V2a.8.8 0 0 1 .8-.8h15a.8.8 0 0 1 .8.8v3.093H19V2z" />
    <path
       id="path4"
       fill-rule="nonzero"
       d="M7 6.2a.8.8 0 0 0-.8.8v15a.8.8 0 0 0 .8.8h15a.8.8 0 0 0 .8-.8V7a.8.8 0 0 0-.8-.8H7zM7 5h15a2 2 0 0 1 2 2v15a2 2 0 0 1-2 2H7a2 2 0 0 1-2-2V7a2 2 0 0 1 2-2z" />
    <path
       id="path6"
       d="M14.616 16.083c0 .767-.292 1.29-.694 1.704-.499.511-1.192.803-1.983.888v1.108h-.889v-1.095c-.767-.061-1.473-.317-2.069-.864a2.6 2.6 0 0 1-.864-1.875h1.497c.012.414.195.78.45 1.023.28.267.621.39.986.426v-2.41c-.195-.024-.402-.049-.596-.085-1.315-.207-2.118-1.047-2.118-2.288 0-.645.304-1.18.742-1.607.475-.475 1.157-.803 1.972-.876V9h.889v1.156c.681.085 1.29.341 1.74.755.487.45.815 1.07.84 1.74h-1.497c-.012-.292-.183-.62-.378-.827-.17-.183-.426-.305-.705-.378v2.227l.413.061c1.242.195 2.264.974 2.264 2.35zm-1.473.061c0-.62-.474-.888-.998-.986l-.206-.036v2.263c.352-.06.645-.182.864-.401a1.1 1.1 0 0 0 .34-.84zm-2.093-2.592V11.41c-.329.048-.657.17-.9.401-.195.183-.33.45-.33.767 0 .56.354.828.865.913.122.024.243.049.365.06z" />
    <rect
       id="rect8"
       rx=".6"
       height="1.2"
       width="5"
       y="11"
       x="16" />
    <rect
       id="rect10"
       rx=".6"
       height="1.2"
       width="5"
       y="14"
       x="16" />
    <rect
       id="rect12"
       rx=".6"
       height="1.2"
       width="5"
       y="17"
       x="16" />
  </g>
</svg>
