<?xml version="1.0" encoding="UTF-8" standalone="no"?>
<svg
   xmlns:dc="http://purl.org/dc/elements/1.1/"
   xmlns:cc="http://creativecommons.org/ns#"
   xmlns:rdf="http://www.w3.org/1999/02/22-rdf-syntax-ns#"
   xmlns:svg="http://www.w3.org/2000/svg"
   xmlns="http://www.w3.org/2000/svg"
   version="1.1"
   id="hostjane-privacy"
   fill="currentColor"
   viewBox="0 0 24 24">
  <defs
     id="defs13" />
  <path
     id="path2"
     d="M9.6 2H6.8c-.3 0-.6.3-.6.6s.3.6.6.6h2.8c.3 0 .6-.3.6-.6S9.9 2 9.6 2z" />
  <circle
     id="circle4"
     r="1"
     cy="21"
     cx="8.2" />
  <path
     id="path6"
     d="M20.2 10.4h-1c-.3 0-.6.3-.6.6s.3.6.6.6h1c.8 0 1.4.6 1.4 1.4v6c0 .8-.6 1.4-1.4 1.4h-6c-.8 0-1.4-.6-1.4-1.4v-6c0-.8.6-1.4 1.4-1.4h1.1c.3 0 .6-.3.6-.6s-.3-.6-.6-.6h-.1V2c0-1.1-.9-2-2-2h-10c-1.1 0-2 .9-2 2v20c0 1.1.9 2 2 2h10c1.1 0 2-.9 2-2v-.4h5c1.4 0 2.6-1.2 2.6-2.6v-6c0-1.4-1.2-2.6-2.6-2.6zm-7 12.4h-10c-.4 0-.8-.4-.8-.8V2c0-.4.4-.8.8-.8h10c.4 0 .8.4.8.8v8.4c-1.3.1-2.4 1.2-2.4 2.6v6c0 1.4 1.1 2.5 2.4 2.6v.4c0 .4-.4.8-.8.8z" />
  <path
     id="path8"
     d="M15.5 15c-.2-.2-.6-.2-.8 0s-.2.6 0 .8l2.1 2.1c.2.2.6.2.8 0l2.1-2.1c.2-.2.2-.6 0-.8s-.6-.2-.8 0l-1.1 1V8.4c0-.3-.3-.6-.6-.6s-.6.3-.6.6v7.7L15.5 15z" />
</svg>
