<svg xmlns="http://www.w3.org/2000/svg" width="200" height="200" viewBox="0 0 200 200">
  <path fill="#0052CC" d="M117.736047,45.3994186 C101.07907,25.0325581 87.6453488,23.2325581 79.144186,18.3819767 C73.0622093,14.8988372 67.4485465,8.77761628 60.3113372,0.252906977 C59.8351744,4.85755814 59.3415698,9.45523256 56.3311047,12.8546512 C50.4139535,19.5409884 42.3811047,23.6520349 35.8264535,26.8796512 C19.1668605,35.0956395 0,54.2284884 0,84.8084302 C0,99.6113372 5.70261628,115.550581 16.4703488,127.832267 C27.9174419,140.900581 45.0549419,149.847384 65.409593,149.747093 C83.5988372,149.654651 98.5351744,143.705233 109.757267,133.996221 C122.895349,122.638081 130.813953,105.95407 130.813953,84.8084302 C130.813953,69.2232558 126.174419,55.7284884 117.736047,45.3994186 Z M99.3156977,136.169477 C91.2898256,142.885465 69.5424419,146.718314 59.2002907,138.163953 C58.1834302,137.319767 58.1459302,136.05436 58.8174419,135.319186 C59.3215116,134.768023 59.7593023,134.510756 60.3601744,134.166279 C61.1136628,133.731977 62.0825581,133.902907 62.7340116,134.497674 C66.8084302,138.270349 86.072093,141.43343 97.640407,133.639535 C98.0694767,133.356977 98.6188953,133.163372 99.0863372,133.374419 C99.440407,133.514826 99.656686,133.70843 99.702907,134.113953 C99.7726744,134.757558 99.815407,135.743023 99.3156977,136.169477 Z M72.244186,125.994767 C72.2729651,125.031977 72.5424419,124.426744 73.2296512,123.746512 C77.1898256,119.798547 81.4072674,117.456977 86.1392442,117.572093 C93.6950581,117.756977 94.0151163,119.539535 96.2136628,123.962791 C96.655814,124.863663 96.3968023,125.640698 96.1072674,126.094186 C95.9581395,126.346221 95.0886628,127.177326 94.7947674,127.177326 C94.0656977,127.177326 93.7979651,126.909593 93.506686,126.172674 C91.7005814,121.663953 89.0354651,121.646512 85.6561047,121.646512 C80.4688953,121.638663 78.205814,124.175581 75.1395349,126.714244 C74.3747093,127.353488 73.6587209,127.825291 73.0866279,127.352616 C72.6235465,126.949709 72.234593,126.405523 72.244186,125.994767 Z M112.778198,124.363953 C105.563372,123.797965 97.518314,107.15843 89.5761628,107.297965 C79.1206395,107.478488 63.7988372,125.093895 46.6011628,124.840116 C37.8226744,124.707558 28.3709302,121.499128 28.0796512,108.109012 C27.8415698,96.955814 38.719186,85.3569767 52.5409884,85.6883721 C70.9020349,86.1156977 79.9526163,102.205814 89.1375,102.264244 C98.1366279,102.328779 108.721221,88.2488372 117.814535,88.031686 C122.651163,87.9148256 126.392442,92.5936047 126.757849,99.1037791 C127.297674,108.873837 121.093605,125.00407 112.778198,124.363953 Z" transform="translate(35 25)"/>
</svg>
