<svg xmlns="http://www.w3.org/2000/svg" width="200" height="200" viewBox="0 0 200 200">
  <path fill="#0052CC" d="M78.4579549,44.9848408 L78.4579549,130.437274 L69.2811102,135.571057 L60.1014925,130.407695 L60.1014925,45.0541663 L36.3376428,58.4644869 L36.3376428,131.53539 L69.2811102,150 L102.500955,131.404134 L102.500955,58.4145725 L78.4579549,44.9848408 Z M69.2811102,0 L0,38.4543808 L0,111.538225 L17.9931969,121.244716 L17.9931969,48.1562504 L69.2958996,19.5821368 L120.643895,48.1165038 L120.851871,48.2255759 L120.829687,121.138417 L138.650957,111.538225 L138.650957,38.4543808 L69.2811102,0 Z" transform="translate(31 25)"/>
</svg>
