<svg xmlns="http://www.w3.org/2000/svg" width="200" height="200" viewBox="0 0 200 200">
  <g fill="none" fill-rule="evenodd">
    <g fill="#0052CC" fill-rule="nonzero" transform="translate(25 25)">
      <path d="M0.0332090175,72.6321429 C0.0332090175,79.8952381 -0.371552887,83.9285714 1.64511378,91.5928571 C2.85820902,97.2452381 4.87487568,104.510714 7.69868521,109.74881 C8.10106616,110.560714 8.10106616,110.961905 8.50582807,111.771429 C8.90701854,112.57619 9.31297092,112.978571 9.71535187,113.788095 L14.5593995,121.452381 C17.78559,125.888095 22.2236852,130.732143 26.26059,133.960714 C27.4701138,134.765476 28.2772566,135.977381 29.4867804,136.782143 L36.7498757,141.625 C36.7498757,137.994048 39.5736852,121.854762 40.3808281,116.608333 C41.5927328,104.508333 42.3974947,112.171429 36.7498757,102.892857 C33.9260662,98.0488095 32.31059,95.222619 30.6998757,89.5738095 C27.8724947,77.8761905 29.08559,67.7857143 34.733209,57.297619 L37.558209,52.4547619 C39.5748757,49.6297619 45.2248757,43.9821429 48.0498757,41.9654762 C51.6808281,39.5440476 49.6641614,40.3511905 54.5046376,37.9285714 C63.3820185,33.4904762 68.2224947,33.4904762 77.0974947,33.4904762 C81.1367804,33.4904762 88.3998757,35.5095238 92.433209,37.1214286 C95.6629709,38.3333333 98.483209,40.35 100.908209,41.9642857 C102.924876,43.1738095 107.762971,47.6130952 109.377257,50.0345238 C110.991542,52.4535714 111.801066,52.8583333 113.817733,56.4892857 C118.253447,64.1535714 120.270114,74.2452381 119.062971,83.1214286 C118.252257,89.977381 116.23678,96.0321429 112.604638,102.083333 L108.571304,107.730952 C106.554638,109.746429 107.358209,108.942857 108.168923,115.40119 L111.799876,141.62381 C114.621304,140.410714 123.096304,133.557143 125.515352,131.132143 C133.990352,122.664286 140.448685,113.378571 144.483209,101.680952 C149.728447,85.5404762 150.130828,72.6297619 146.097495,55.6833333 C145.28678,52.4547619 142.867733,45.1916667 141.253447,42.3666667 L136.41059,33.8940476 C135.605828,32.6845238 135.203447,32.2797619 134.393923,31.0702381 C133.18678,29.0511905 127.941542,23.402381 125.923685,21.3857143 C120.679638,16.5452381 116.237971,13.3154762 110.18678,9.68452381 C109.377257,9.28214286 108.171304,8.475 107.36059,8.0702381 C104.941542,6.86071429 100.097495,4.84404762 97.6784471,4.03690476 C91.2201138,1.61428571 81.5379709,7.10542736e-14 74.2760662,7.10542736e-14 C66.2058281,7.10542736e-14 58.5379709,1.61428571 51.2760662,4.03690476 C48.8570185,4.84404762 47.2427328,5.65119048 44.8213043,6.86071429 C42.8046376,7.66785714 40.7879709,8.87738095 38.7677328,10.0869048 C33.1201138,13.3154762 33.1201138,13.3154762 27.8736852,17.7547619 C25.0498757,20.1761905 23.43559,21.7880952 21.0165424,24.2095238 C16.9796376,28.2464286 9.71773283,38.7345238 7.70106616,43.1738095 L4.87725664,49.2261905 C2.45463759,55.2797619 0.0367804461,65.3666667 0.0367804461,72.2238095 L0.0367804461,72.6321429 L0.0332090175,72.6321429 Z"/>
      <path d="M50.8713043,75.0511905 C50.8713043,79.4928571 50.8713043,81.9119048 52.48559,86.347619 C53.6951138,89.1738095 53.6951138,89.1738095 55.7117804,92.0011905 C58.53559,95.6321429 61.3617804,97.2452381 65.7986852,99.2642857 L56.5201138,149.291667 L92.0284471,149.291667 L82.7486852,98.8559524 C83.9558281,98.0511905 86.3808281,97.2452381 88.7986852,95.6321429 C96.0617804,89.9797619 99.2903519,81.9130952 97.6760662,72.227381 C97.2736852,70.6154762 96.8653519,69.8083333 96.0617804,68.1940476 C93.23559,60.9309524 84.3593995,54.4761905 75.483209,54.4761905 C68.2213043,54.4761905 64.1867804,55.2845238 58.1343995,60.1238095 C56.9248757,61.3333333 53.6951138,64.9642857 53.2939233,66.5797619 C52.0820185,69.0011905 50.4665424,71.825 50.4665424,75.4535714 L50.8713043,75.0511905 Z"/>
    </g>
    <rect width="200" height="200"/>
  </g>
</svg>
