<svg xmlns="http://www.w3.org/2000/svg" width="200" height="200" viewBox="0 0 200 200">
  <g fill="none" fill-rule="evenodd">
    <g fill-rule="nonzero" transform="translate(25 26)">
      <path fill="#FFF" d="M73.9473425,40.0802265 C67.9260827,41.7136911 63.4402559,60.2723525 64.549311,78.9136911 C64.6473425,80.342825 64.8020669,82.5384943 64.8410433,82.9589667 L64.8847441,83.2707777 L65.2355315,83.3109352 C65.4186024,83.3392817 66.1355315,83.3924313 66.8264764,83.4432187 C87.2170276,84.970384 106.927264,80.4396754 108.141437,73.9483368 C108.27372,73.2680218 108.110728,70.3778643 107.826083,68.4798328 C105.76624,54.5499116 95.0808071,43.3566045 81.2583661,40.6081793 C78.5701772,40.0766832 74.9323819,39.8073919 73.9473425,40.0802265"/>
      <path fill="#0069FF" d="M71.1315945,0.0243210235 C70.9367126,0.0337698424 70.2941929,0.0644785039 69.7000984,0.108179291 C54.5229331,1.00817929 39.8028543,6.73888795 27.8063976,16.4003053 C26.1375,17.736132 24.3871063,19.2857383 23.103248,20.528258 C22.791437,20.8329824 22.4949803,21.1093604 22.4430118,21.1306202 C22.3166339,21.2003053 19.9083661,23.7325887 19.0284449,24.7093604 C-6.34281496,53.0723525 -6.34281496,95.6522738 19.0284449,124.001093 C19.9119094,124.996762 22.3154528,127.539675 22.4441929,127.594006 C22.4973425,127.616447 22.8044291,127.903455 23.1292323,128.250699 C23.4682087,128.567234 24.0363189,129.077471 24.395374,129.423534 C24.7544291,129.740069 25.1170276,130.061329 25.1997047,130.153455 C32.8969488,137.301486 44.7020669,143.563691 55.9449803,146.453849 C88.411122,154.787707 122.328839,140.381801 139.112303,111.104636 C154.621358,84.0715651 151.300098,49.6755021 130.921358,25.9849509 C130.112303,25.0589667 129.978839,24.9113289 129.209941,24.0739273 C116.220177,9.93495094 99.1036417,1.66723441 79.6508858,0.127076929 C78.4957677,0.0384942519 72.1355315,-0.0418207087 71.1315945,0.0243210235 M79.7288386,6.70817929 C112.975689,9.28534465 138.983563,35.3818013 141.494587,68.6971557 C141.700098,71.6333761 141.683563,74.0829824 141.422539,75.0562108 C138.377657,86.8873131 103.45128,95.5483368 65.4587598,93.8605415 C63.3363189,93.7577856 63.2276575,93.7530612 60.833563,93.6018801 C56.9063976,93.3715651 49.0308071,92.586132 48.9020669,92.4432187 C48.8430118,92.3900691 48.441437,88.1818013 48.2560039,85.8644785 C45.5004921,49.8845572 54.9871063,15.000699 69.463878,7.82313992 C72.0268701,6.54400606 74.4150591,6.29125016 79.7288386,6.70817929"/>
      <path fill="#0052CC" d="M74.0347441,6.5640848 C57.5264764,7.45936039 45.1721457,45.4601478 48.257185,85.8632974 C48.4426181,88.1806202 48.845374,92.388888 48.903248,92.4420376 C49.0319882,92.5849509 56.9063976,93.370384 60.8347441,93.600699 C63.2276575,93.7518801 63.3375,93.7566045 65.4599409,93.8593604 C103.452461,95.5471557 138.378839,86.886132 141.42372,75.0550297 C141.739075,73.8160533 141.695374,70.628258 141.287894,66.588888 C138.349311,36.9609352 115.713484,12.6443998 86.3182087,7.51959661 C82.3048228,6.81684071 76.929626,6.39400606 74.0347441,6.5640848 M77.8650591,40.1109352 C93.8949803,41.6605415 106.520965,54.2605415 108.02687,70.2668407 C108.40128,74.0475494 108.218209,74.9050297 106.653248,76.478258 C101.783563,81.3621163 85.0331693,84.5522738 69.1768701,83.5979431 C67.8693898,83.5270769 65.7363189,83.3735336 65.2367126,83.3097541 L64.8859252,83.2695966 L64.8422244,82.9577856 C64.825689,82.7865257 64.7642717,82.0589667 64.7229331,81.3408565 C63.2630906,61.1345572 67.5741142,41.8188092 73.9485236,40.0790454 C74.4563976,39.9384943 76.1560039,39.9526675 77.8650591,40.1109352"/>
    </g>
    <rect width="200" height="200"/>
  </g>
</svg>
