<svg xmlns="http://www.w3.org/2000/svg" width="200" height="200" viewBox="0 0 200 200">
  <g fill="none" fill-rule="evenodd">
    <path fill="#0052CC" fill-rule="nonzero" d="M58.3626853,99.5902645 C58.3626853,108.250891 51.3439066,115.271607 42.6842486,115.271607 C34.0178101,115.271607 27,108.250891 27,99.5902645 C27,90.9306065 34.0178101,83.9069846 42.6842486,83.9069846 C51.342938,83.9069846 58.3626853,90.9306065 58.3626853,99.5902645 Z M112.59791,62.0612052 C131.193896,62.0612052 146.51781,76.0638916 148.610076,94.1009712 L172.973356,93.3609289 C171.895258,80.0556646 166.517358,67.9660459 158.230627,58.4820737 C154.6699,61.0024797 150.324573,62.4825644 145.635377,62.4825644 C133.592253,62.4825644 123.836093,52.7215607 123.836093,40.68328 C123.836093,40.0439763 123.860309,39.4192024 123.912616,38.7992716 C120.246306,38.105724 116.464729,37.7395774 112.596942,37.7395774 C102.908586,37.7395774 93.7539521,40.017823 85.6347962,44.060934 L97.6759828,65.2664411 C102.229568,63.2119517 107.279098,62.0612052 112.59791,62.0612052 Z M145.636346,56.3626853 C154.296973,56.3626853 161.315751,49.3439066 161.315751,40.6842486 C161.315751,32.0216847 154.297941,25 145.636346,25 C136.974751,25 129.955972,32.0216847 129.955972,40.6842486 C129.955003,49.3439066 136.973782,56.3626853 145.636346,56.3626853 Z M146.451942,143.635377 C137.792284,143.635377 130.773506,150.657062 130.773506,159.315751 C130.773506,167.978315 137.791316,175 146.451942,175 C155.114506,175 162.136191,167.978315 162.136191,159.315751 C162.13716,150.657062 155.115475,143.635377 146.451942,143.635377 Z M76.3426151,98.3213437 C76.3426151,86.7354187 81.7737898,76.4164772 90.2348763,69.7774061 L77.3035078,49.0852792 C66.4692489,56.8634732 58.3074727,68.130715 54.4600274,81.2403136 C60.4907914,85.1197241 64.4825644,91.8895619 64.4825644,99.5912331 C64.4825644,107.010061 60.7784781,113.562923 55.1196725,117.498515 C59.261585,129.919409 67.3197164,140.557034 77.8285116,147.93421 L89.8464509,126.551441 C81.6100894,119.903652 76.3426151,109.730976 76.3426151,98.3213437 Z M146.451942,137.51453 C150.09791,137.51453 153.538526,138.413429 156.557783,139.994253 C165.948765,130.085047 172.035711,117.012257 173.028568,102.536873 L148.663352,102.056427 C146.791936,120.326949 131.358565,134.577608 112.598879,134.577608 C107.397272,134.577608 102.45623,133.480136 97.9830423,131.507013 L85.8721134,152.69799 C93.9341194,156.670391 103.00545,158.901173 112.598879,158.901173 C116.745635,158.901173 120.799401,158.476908 124.71562,157.686496 C125.545746,146.405693 134.961913,137.51453 146.451942,137.51453 Z"/>
    <rect width="200" height="200"/>
  </g>
</svg>
