<?xml version="1.0" encoding="iso-8859-1"?>
<!-- Generator: Adobe Illustrator 13.0.0, SVG Export Plug-In . SVG Version: 6.00 Build 14948)  -->
<!DOCTYPE svg PUBLIC "-//W3C//DTD SVG 1.1//EN" "http://www.w3.org/Graphics/SVG/1.1/DTD/svg11.dtd">
<svg version="1.1" id="Layer_1" xmlns="http://www.w3.org/2000/svg" xmlns:xlink="http://www.w3.org/1999/xlink" x="0px" y="0px"
	 width="150px" height="150px" viewBox="0 0 150 150" enable-background="new 0 0 150 150" xml:space="preserve">
<path fill="#0052CC" d="M52.432,35.414h16.677l-2.591,9.88c-0.348,1.321-1.128,2.493-2.214,3.33
	c-1.07,0.821-2.398,1.271-3.753,1.248h-7.748c-1.676-0.026-3.333,0.522-4.666,1.551c-1.378,1.061-2.364,2.533-2.844,4.202
	c-0.332,1.222-0.379,2.515-0.101,3.757c0.24,1.14,0.729,2.209,1.427,3.135c0.711,0.924,1.613,1.667,2.666,2.179
	c1.098,0.537,2.309,0.822,3.542,0.81h4.697c0.842-0.017,1.651,0.382,2.164,1.07c0.568,0.663,0.749,1.564,0.494,2.394l-2.942,10.917
	h-5.162c-3.398,0.036-6.763-0.764-9.781-2.326c-2.888-1.477-5.425-3.586-7.413-6.155c-4.091-5.347-5.478-12.292-3.751-18.806
	l0.298-1.097c1.239-4.628,3.972-8.711,7.777-11.626c1.867-1.414,3.945-2.518,6.158-3.282C47.641,35.808,50.035,35.408,52.432,35.414
	z"/>
<path fill="#0052CC" d="M60.84,79.887l14.527-54.425c0.366-1.317,1.139-2.49,2.226-3.327c1.06-0.833,2.388-1.267,3.754-1.245h15.406
	c3.393-0.034,6.767,0.757,9.776,2.325c5.872,2.995,10.074,8.455,11.46,14.896c0.739,3.324,0.637,6.783-0.293,10.063l-0.293,1.098
	c-0.622,2.33-1.641,4.539-2.966,6.536c-3.991,6.022-10.742,9.641-17.992,9.623H83.098l2.65-9.964c0.386-1.279,1.15-2.42,2.227-3.233
	c1.053-0.836,2.411-1.274,3.756-1.261h4.272c3.552,0,6.655-2.391,7.528-5.824c0.348-1.164,0.389-2.418,0.113-3.609
	c-0.24-1.141-0.748-2.206-1.439-3.136c-0.699-0.923-1.613-1.678-2.651-2.214c-1.091-0.573-2.305-0.861-3.551-0.844h-8.254
	l-10.771,40.04c-0.354,1.294-1.131,2.432-2.199,3.239c-1.06,0.834-2.357,1.277-3.687,1.263H60.84z"/>
<g>
	<g>
		<path fill="#0052CC" d="M64.878,101.042l-5.858,21.721c-0.351,1.305-0.895,2.511-1.626,3.61c-0.732,1.101-1.615,2.031-2.63,2.807
			c-1.017,0.773-2.158,1.381-3.391,1.802c-1.246,0.436-2.55,0.653-3.905,0.653H15.372l8.175-30.715
			c0.134-0.543,0.435-0.978,0.882-1.329c0.435-0.325,0.95-0.505,1.518-0.505h4.354c0.514,0,0.92,0.205,1.233,0.614
			s0.393,0.857,0.272,1.342l-6.063,22.614h8.258l6.101-22.736c0.138-0.543,0.422-0.978,0.882-1.329
			c0.447-0.339,0.936-0.518,1.479-0.518h4.391c0.519,0,0.924,0.205,1.221,0.614c0.297,0.401,0.38,0.849,0.246,1.342l-6.063,22.614
			h4.963c0.975,0,1.844-0.281,2.617-0.862c0.773-0.589,1.289-1.35,1.518-2.295l5.248-19.566c0.135-0.543,0.435-0.978,0.883-1.329
			c0.447-0.339,0.949-0.518,1.518-0.518h4.366c0.515,0,0.921,0.205,1.247,0.614C64.92,100.109,65.012,100.558,64.878,101.042z"/>
		<path fill="#0052CC" d="M70.532,119.349l-2.806,10.45c-0.138,0.543-0.434,0.992-0.882,1.331c-0.447,0.337-0.949,0.517-1.518,0.517
			h-4.353c-0.489,0-0.896-0.204-1.208-0.613c-0.311-0.402-0.394-0.838-0.269-1.297l7.686-28.802c0.137-0.544,0.435-0.979,0.882-1.33
			c0.448-0.339,0.949-0.519,1.518-0.519h6.309l-3.219,12.284h10.173l2.806-10.45c0.135-0.543,0.422-0.978,0.87-1.329
			c0.447-0.339,0.934-0.518,1.477-0.518h6.386l-8.233,30.726c-0.135,0.543-0.415,0.992-0.863,1.331
			c-0.446,0.337-0.939,0.517-1.483,0.517h-4.392c-0.517,0-0.919-0.204-1.22-0.613c-0.301-0.402-0.376-0.838-0.243-1.297
			l2.768-10.375H70.532V119.349z"/>
		<path fill="#0052CC" d="M88.554,129.677l8.214-30.591h25.715c1.975,0,3.777,0.435,5.433,1.279c1.643,0.856,2.998,1.994,4.086,3.4
			c1.079,1.412,1.826,3.021,2.235,4.844c0.402,1.815,0.352,3.677-0.166,5.573l-4.186,15.616c-0.134,0.543-0.436,0.992-0.87,1.331
			c-0.446,0.337-0.966,0.517-1.521,0.517h-4.354c-0.51,0-0.933-0.204-1.245-0.613c-0.307-0.402-0.403-0.851-0.269-1.343
			l4.436-16.435c0.185-0.753,0.198-1.501,0.038-2.262c-0.166-0.749-0.46-1.413-0.92-1.994c-0.447-0.581-1.002-1.055-1.668-1.406
			c-0.665-0.357-1.4-0.531-2.212-0.531h-1.872l-6.098,22.736c-0.143,0.543-0.435,0.992-0.871,1.331
			c-0.446,0.337-0.952,0.517-1.488,0.517h-4.397c-0.512,0-0.921-0.204-1.222-0.613c-0.293-0.402-0.377-0.851-0.242-1.343
			l6.06-22.614h-8.26l-6.097,22.742c-0.135,0.536-0.422,0.984-0.869,1.324c-0.448,0.339-0.966,0.517-1.521,0.517h-4.354
			c-0.512,0-0.934-0.204-1.246-0.607C88.496,130.617,88.42,130.17,88.554,129.677z"/>
	</g>
</g>
<rect x="15" y="15" fill="none" width="120" height="120"/>
<rect fill="none" width="150" height="150"/>
</svg>
