<?xml version="1.0" encoding="iso-8859-1"?>
<!-- Generator: Adobe Illustrator 13.0.0, SVG Export Plug-In . SVG Version: 6.00 Build 14948)  -->
<!DOCTYPE svg PUBLIC "-//W3C//DTD SVG 1.1//EN" "http://www.w3.org/Graphics/SVG/1.1/DTD/svg11.dtd">
<svg version="1.1" id="Layer_1" xmlns="http://www.w3.org/2000/svg" xmlns:xlink="http://www.w3.org/1999/xlink" x="0px" y="0px"
	 width="200px" height="200px" viewBox="0 0 200 200" enable-background="new 0 0 200 200" xml:space="preserve">
<g>
	<path fill="#0052CC" fill-opacity="0.94" d="M150.721,94.334c-4.291-3.569-7.732-6.487-12.281-10.236
		c-1.049-5.938-2.092-11.782-3.128-17.498c-1.735-9.776-10.173-20.053-19.117-22.905c-4.077-1.306-7.87-0.896-11.525,1.26
		c-4.414-4.652-9.017-7.806-14.042-9.419c-11.936-3.8-21.715,3.109-20.612,15.995c0.624,7.173,1.234,14.974,1.753,21.161
		c-6.753,2.808-13.698,5.739-19.415,8.172c-7.117,3.024-12.029,9.116-13.921,16.347c-1.926,7.348-0.775,15.907,4.102,23.465
		c4.33,6.773,10.507,11.374,18.427,13.878c-0.652,8.919,0.954,16.623,4.962,22.961c4.517,7.196,11.212,11.467,18.033,12.654
		c6.714,1.164,13.49-0.732,18.657-5.66c5.578-5.363,10.81-10.41,15.806-15.192c5.96,3.567,11.682,6.998,17.236,10.36
		c9.063,5.415,18.359-0.508,20.566-11.994c0.91-4.806,0.504-10.187-1.197-16.229c3.24-1.995,5.23-5.115,6.046-9.482
		c1.729-9.238-2.82-21.422-10.35-27.64L150.721,94.334z M152.261,115.112c-0.507,2.211-1.965,3.545-3.735,3.357
		c-1.487-0.198-2.744-0.769-5.264-2.622c-4.123-3.144-8.373-6.338-12.764-9.563c-0.392-0.266-0.831-0.565-1.225-0.864
		c-3.684-2.713-6.871-2.191-8.066,1.527c-1.281,3.737,0.521,8.195,4.25,10.825c0.398,0.28,0.887,0.598,1.276,0.872
		c4.566,3.227,9.083,6.366,13.468,9.421c1.859,1.319,3.271,2.523,4.179,3.601c2.038,2.344,2.993,6.137,2.303,9.316
		c-0.772,3.373-2.914,5.135-5.554,4.505c-1.328-0.288-2.338-0.819-4.723-2.356c-4.618-2.979-9.366-6.111-14.275-9.262
		c-0.475-0.299-0.924-0.614-1.346-0.89c-1.57-0.95-3.033-1.395-4.359-1.328l0,0c-1.469-0.133-3.048,0.4-4.517,1.594
		c-0.397,0.355-0.797,0.664-1.194,1.053c-4.582,3.729-9.318,7.769-14.377,11.987c-2.719,2.281-3.926,3.164-5.753,3.828
		c-3.661,1.377-7.7-0.18-10.232-4.223c-2.379-3.884-2.277-8.984,0.183-12.198c1.06-1.408,2.838-3.056,5.277-4.792
		c5.333-3.79,10.381-7.378,15.179-10.812c0.427-0.312,0.824-0.618,1.272-0.914c3.657-2.577,4.333-7.164,1.787-11.42
		c-2.501-4.241-6.65-5.51-10.569-3.154c-0.438,0.269-0.867,0.536-1.327,0.841c-5.054,3.108-10.378,6.402-16.001,9.864
		c-3.601,2.146-5.516,2.87-8.226,2.99c-3.333,0.191-6.828-1.894-8.85-5.099c-2.319-3.609-2.386-8.101-0.186-10.88
		c1.253-1.637,2.581-2.634,6.405-4.587c5.923-3.068,11.582-5.948,16.969-8.654c0.457-0.283,0.922-0.476,1.402-0.693
		c0.327-0.176,0.647-0.365,0.914-0.557c2.391-1.065,3.584-3.727,3.188-7.333c-0.063-0.598-0.095-1.189-0.199-1.757
		c-0.664-6.405-1.311-12.655-1.992-18.786c-0.398-3.755-0.346-5.066,0.132-6.552c0.738-2.354,3.416-3.388,6.416-2.584
		c2.631,0.725,5.157,2.783,6.534,5.305c1.13,2.067,1.655,3.788,2.092,7.351c0.767,5.828,1.521,11.754,2.282,17.82
		c0.108,0.534,0.163,1.085,0.242,1.653c0.663,5.035,3.636,8.645,7.533,9.171c3.751,0.492,5.733-2.444,5.043-7.151
		c-0.09-0.51-0.145-1.062-0.225-1.557c-0.83-5.806-1.684-11.48-2.509-17.054c-0.337-2.396-0.457-4.244-0.28-5.428
		c0.286-2.628,2.391-4.007,5.075-3.275c2.737,0.729,5.284,3.243,6.449,6.217c0.569,1.497,0.848,2.681,1.343,5.469
		c0.869,5.314,1.632,10.684,2.54,16.205l0.336,1.542c0.29,1.38,0.394,1.646,0.63,2.375l-0.038-0.242l-0.01-0.025l-0.028-0.057
		l-0.013-0.074l0,0h0.038c0.441,2.09,1.85,4.166,3.985,5.844c0.359,0.281,0.782,0.581,1.144,0.896
		c4.146,3.248,8.166,6.465,12.15,9.565c2.391,1.859,3.218,2.743,4.167,4.062c1.546,2.161,2.189,5.273,1.656,7.688H152.261z"/>
</g>
<rect fill="none" width="200" height="200"/>
</svg>
