<svg xmlns="http://www.w3.org/2000/svg" viewBox="0 0 24 24" aria-hidden="true" focusable="false">
  <path d="M20,7H4C3.4,7,3,6.6,3,6s0.4-1,1-1h16c0.6,0,1,0.4,1,1S20.6,7,20,7z"/>
  <path d="M15.2,13H4c-0.6,0-1-0.4-1-1s0.4-1,1-1h11.2c0.6,0,1,0.4,1,1S15.8,13,15.2,13z"/>
  <path d="M20,19H4c-0.6,0-1-0.4-1-1s0.4-1,1-1h16c0.6,0,1,0.4,1,1S20.6,19,20,19z"/>
</svg>
