<svg xmlns="http://www.w3.org/2000/svg" viewBox="0 0 24 24" aria-hidden="true" focusable="false">
  <path fill="currentColor" d="M17,10V7A5,5,0,0,0,7,7v3H5v8a2,2,0,0,0,2,2H17a2,2,0,0,0,2-2V10H17Zm-4,7a1,1,0,0,1-2,0V13a1,1,0,0,1,2,0v4Zm2-7H9V7a2.935,2.935,0,0,1,3-3,2.935,2.935,0,0,1,3,3v3Z"/>
</svg>
