<svg width="100" height="100" xmlns="http://www.w3.org/2000/svg">

 <g>
  <title>background</title>
  <rect fill="none" id="canvas_background" height="402" width="582" y="-1" x="-1"/>
 </g>
 <g>
  <title>Layer 1</title>
  <circle id="svg_70" stroke-miterlimit="10" stroke="#ffffff" r="2.083" fill="#ffffff" cy="64.417" cx="22.167"/>
  <circle id="svg_71" stroke-miterlimit="10" stroke="#ffffff" r="1.833" fill="#ffffff" cy="71.834" cx="15.167"/>
  <circle id="svg_72" stroke-miterlimit="10" stroke="#ffffff" r="2.583" fill="#ffffff" cy="77.583" cx="10"/>
  <circle id="svg_73" stroke-miterlimit="10" stroke="#ffffff" r="1.667" fill="#ffffff" cy="86.168" cx="19.333"/>
  <circle id="svg_74" stroke-miterlimit="10" stroke="#ffffff" r="2" fill="#ffffff" cy="87.334" cx="33"/>
  <circle id="svg_75" stroke-miterlimit="10" stroke="#ffffff" r="2.167" fill="#ffffff" cy="84" cx="46.333"/>
  <circle id="svg_76" stroke-miterlimit="10" stroke="#ffffff" r="3.083" fill="#ffffff" cy="72.084" cx="49.251"/>
  <circle id="svg_77" stroke-miterlimit="10" stroke="#ffffff" r="2" fill="#ffffff" cy="60.001" cx="51.333"/>
  <circle id="svg_78" stroke-miterlimit="10" stroke="#ffffff" r="1.75" fill="#ffffff" cy="42.75" cx="62.25"/>
  <circle id="svg_79" stroke-miterlimit="10" stroke="#ffffff" r="2.083" fill="#ffffff" cy="39.417" cx="67.083"/>
  <circle id="svg_80" stroke-miterlimit="10" stroke="#ffffff" r="2.75" fill="#ffffff" cy="34.751" cx="74.417"/>
  <circle id="svg_81" stroke-miterlimit="10" stroke="#ffffff" r="2.083" fill="#ffffff" cy="18.642942" cx="87.583"/>
  <circle id="svg_82" stroke-miterlimit="10" stroke="#ffffff" r="2.417" fill="#ffffff" cy="29.417" cx="91"/>
  <circle id="svg_83" stroke-miterlimit="10" stroke="#ffffff" r="1.667" fill="#ffffff" cy="38.167" cx="91.167"/>
  <circle id="svg_84" stroke-miterlimit="10" stroke="#ffffff" r="2.25" fill="#ffffff" cy="49.602981" cx="89.583"/>
  <line id="svg_85" y2="27" y1="20.834" x2="90.167" x1="88.333" stroke-miterlimit="10" stroke="#ffffff" fill="none"/>
  <line id="svg_86" y2="36.334" y1="32" x2="91.167" x1="91" stroke-miterlimit="10" stroke="#ffffff" fill="none"/>
  <line id="svg_87" y2="47" y1="39.834" x2="90.167" x1="91.167" stroke-miterlimit="10" stroke="#ffffff" fill="none"/>
  <line id="svg_88" y2="30.167" y1="33.667" x2="88.667" x1="77" stroke-miterlimit="10" stroke="#ffffff" fill="none"/>
  <line id="svg_89" y2="36" y1="38" x2="71.833" x1="68.667" stroke-miterlimit="10" stroke="#ffffff" fill="none"/>
  <line id="svg_90" y2="41.667" y1="40.5" x2="63.667" x1="65.333" stroke-miterlimit="10" stroke="#ffffff" fill="none"/>
  <line id="svg_91" y2="58.167" y1="44.167" x2="52.333" x1="61" stroke-miterlimit="10" stroke="#ffffff" fill="none"/>
  <line id="svg_92" y2="68.834" y1="61.834" x2="49.833" x1="50.833" stroke-miterlimit="10" stroke="#ffffff" fill="none"/>
  <line id="svg_93" y2="82.001" y1="74.834" x2="46.833" x1="48.333" stroke-miterlimit="10" stroke="#ffffff" fill="none"/>
  <line id="svg_94" y2="87.334" y1="84.667" x2="35" x1="44.167" stroke-miterlimit="10" stroke="#ffffff" fill="none"/>
  <line id="svg_95" y2="86.501" y1="87.334" x2="21.167" x1="31" stroke-miterlimit="10" stroke="#ffffff" fill="none"/>
  <line id="svg_96" y2="79.334" y1="85.167" x2="11.833" x1="17.667" stroke-miterlimit="10" stroke="#ffffff" fill="none"/>
  <line id="svg_97" y2="73.167" y1="75.334" x2="13.833" x1="11.5" stroke-miterlimit="10" stroke="#ffffff" fill="none"/>
  <line id="svg_98" y2="66.167" y1="70.334" x2="20.667" x1="16.667" stroke-miterlimit="10" stroke="#ffffff" fill="none"/>
 </g>
</svg>