<svg xmlns="http://www.w3.org/2000/svg" width="200" height="200" viewBox="0 0 200 200">
  <g fill="none" transform="translate(42 25)">
    <path fill="#E41937" d="M40.5708333,145.808333 C11.5125,137.291667 -0.229166667,110.320833 0.933333333,85.0583333 C1.4375,74.65 5.66666667,64.7625 12.8333333,57.2083333 C11.5125,62.8791667 12.5166667,81.2583333 22.6,89.3916667 C20.4791667,80.5708333 20.6916667,71.3416667 23.2166667,62.625 C30.6583333,42.4 51.7583333,36.9666667 49.5541667,18.5333333 C48.9708333,12.5416667 47.1375,6.74583333 44.1625,1.51666667 C56.2291667,5.59166667 66.8583333,13.075 74.7458333,23.075 C81.0375,31.15 84.4416667,41.0875 84.4166667,51.3208333 C84.3833333,54.95 83.9625,58.55 83.1416667,62.0875 C84.775,57.7708333 87.225,53.8208333 90.3583333,50.4333333 C95.825,45.0791667 102.4875,41.1 109.795833,38.8291667 C105.558333,47.075 104.045833,56.4541667 105.479167,65.6166667 C107.179167,75.85 115.091667,89.3375 113.129167,105.366667 C111.758333,124.3625 98.6333333,140.466667 80.2958333,145.666667 C67.2333333,142.608333 53.6208333,142.658333 40.5708333,145.808333 Z"/>
    <path fill="#98012E" d="M80.3083333,145.666667 C88.425,135.7125 94.2291667,117.2375 84.7833333,106.683333 C84.0708333,112.891667 81.3083333,118.679167 76.9541667,123.141667 C78.6041667,119.991667 79.1875,116.383333 78.6541667,112.8625 C77.2875,99.8708333 65.3625,97.5583333 64.9166667,89.3166667 C64.5125,85.7833333 65.2125,82.2208333 66.9,79.1083333 C61.1791667,81.2125 56.2208333,84.9791667 52.6416667,89.9166667 C49.6833333,94.0333333 48.1083333,98.9958333 48.1291667,104.070833 C48.1416667,105.883333 48.3458333,107.691667 48.7208333,109.466667 C47.975,107.325 46.8333333,105.345833 45.3541667,103.625 C42.8541667,100.975 39.75,98.9791667 36.2958333,97.8083333 C42.4666667,113.5875 33.7708333,114.625 31.9958333,124.05 C29.7583333,132.895833 37.775,142.7125 40.5791667,145.8125 C47.0166667,147.833333 53.6666667,149.1 60.3916667,149.6 C67.1708333,149.158333 73.8666667,147.829167 80.3083333,145.666667 Z"/>
  </g>
</svg>
