<svg xmlns="http://www.w3.org/2000/svg" width="200" height="200" viewBox="0 0 200 200">
  <g fill="none" transform="translate(28 25)">
    <polygon fill="#56AAFF" points="38.741 34.971 54.093 4.288 27.238 4.288 4.226 50.322 27.238 50.322 19.583 77.586 62.064 34.971" transform="translate(36.207 72.414)"/>
    <path fill="#0052CC" d="M28.3706897,3.25344828 L113.865517,3.25344828 C128.384483,3.25344828 140.162069,15.0051724 140.162069,29.55 L140.162069,29.55 C140.162069,44.0689655 128.37931,55.8517241 113.865517,55.8517241 L28.3706897,55.8517241 C13.8517241,55.8517241 2.07413793,44.0689655 2.07413793,29.55 L2.07413793,29.55 C2.07413793,15.0051724 13.8568966,3.25344828 28.3706897,3.25344828 Z" transform="translate(0 36.207)"/>
    <path fill="#0052CC" d="M36.9206897,0 C56.8965517,0 73.0862069,16.1948276 73.0862069,36.1706897 C73.0862069,56.1258621 56.8965517,72.3362069 36.9155172,72.3362069 C16.9603448,72.3362069 0.770689655,56.1258621 0.770689655,36.1706897 C0.775862069,16.1948276 16.9655172,0 36.9206897,0 Z" transform="translate(51.724)"/>
    <circle cx="24.134" cy="25.826" r="23.007" fill="#0052CC" transform="translate(20.69 10.345)"/>
  </g>
</svg>
